<?xml version="1.0" encoding="UTF-8" standalone="no"?>
<graphml xmlns="http://graphml.graphdrawing.org/xmlns" xmlns:java="http://www.yworks.com/xml/yfiles-common/1.0/java" xmlns:sys="http://www.yworks.com/xml/yfiles-common/markup/primitives/2.0" xmlns:x="http://www.yworks.com/xml/yfiles-common/markup/2.0" xmlns:xsi="http://www.w3.org/2001/XMLSchema-instance" xmlns:y="http://www.yworks.com/xml/graphml" xmlns:yed="http://www.yworks.com/xml/yed/3" xsi:schemaLocation="http://graphml.graphdrawing.org/xmlns http://www.yworks.com/xml/schema/graphml/1.1/ygraphml.xsd">
  <!--Created by yEd 3.16.2.1-->
  <key attr.name="Description" attr.type="string" for="graph" id="d0"/>
  <key for="port" id="d1" yfiles.type="portgraphics"/>
  <key for="port" id="d2" yfiles.type="portgeometry"/>
  <key for="port" id="d3" yfiles.type="portuserdata"/>
  <key attr.name="url" attr.type="string" for="node" id="d4"/>
  <key attr.name="description" attr.type="string" for="node" id="d5"/>
  <key for="node" id="d6" yfiles.type="nodegraphics"/>
  <key for="graphml" id="d7" yfiles.type="resources"/>
  <key attr.name="url" attr.type="string" for="edge" id="d8"/>
  <key attr.name="description" attr.type="string" for="edge" id="d9"/>
  <key for="edge" id="d10" yfiles.type="edgegraphics"/>
  <graph edgedefault="directed" id="G">
    <data key="d0"/>
    <node id="n0" yfiles.foldertype="group">
      <data key="d4"/>
      <data key="d5"/>
      <data key="d6">
        <y:ProxyAutoBoundsNode>
          <y:Realizers active="0">
            <y:GroupNode>
              <y:Geometry height="372.666015625" width="149.5" x="50.5" y="88.333984375"/>
              <y:Fill color="#F5F5F5" transparent="false"/>
              <y:BorderStyle color="#000000" type="dashed" width="1.0"/>
              <y:NodeLabel alignment="right" autoSizePolicy="node_width" backgroundColor="#EBEBEB" borderDistance="0.0" fontFamily="Dialog" fontSize="15" fontStyle="plain" hasLineColor="false" height="21.666015625" horizontalTextPosition="center" iconTextGap="4" modelName="internal" modelPosition="t" textColor="#000000" verticalTextPosition="bottom" visible="true" width="149.5" x="0.0" y="0.0">Document</y:NodeLabel>
              <y:Shape type="roundrectangle"/>
              <y:State closed="false" closedHeight="50.0" closedWidth="50.0" innerGraphDisplayEnabled="false"/>
              <y:Insets bottom="15" bottomF="15.0" left="15" leftF="15.0" right="15" rightF="15.0" top="15" topF="15.0"/>
              <y:BorderInsets bottom="1" bottomF="1.0" left="0" leftF="0.0" right="11" rightF="10.5" top="0" topF="0.0"/>
            </y:GroupNode>
            <y:GroupNode>
              <y:Geometry height="50.0" width="50.0" x="120.0" y="60.0"/>
              <y:Fill color="#F2F0D8" transparent="false"/>
              <y:BorderStyle color="#000000" type="line" width="1.0"/>
              <y:NodeLabel alignment="right" autoSizePolicy="node_width" backgroundColor="#B7B69E" borderDistance="0.0" fontFamily="Dialog" fontSize="15" fontStyle="plain" hasLineColor="false" height="21.666015625" horizontalTextPosition="center" iconTextGap="4" modelName="internal" modelPosition="t" textColor="#000000" verticalTextPosition="bottom" visible="true" width="63.75830078125" x="-6.879150390625" y="0.0">Folder 1</y:NodeLabel>
              <y:Shape type="rectangle"/>
              <y:DropShadow color="#D2D2D2" offsetX="4" offsetY="4"/>
              <y:State closed="true" closedHeight="50.0" closedWidth="50.0" innerGraphDisplayEnabled="false"/>
              <y:Insets bottom="5" bottomF="5.0" left="5" leftF="5.0" right="5" rightF="5.0" top="5" topF="5.0"/>
              <y:BorderInsets bottom="0" bottomF="0.0" left="0" leftF="0.0" right="0" rightF="0.0" top="0" topF="0.0"/>
            </y:GroupNode>
          </y:Realizers>
        </y:ProxyAutoBoundsNode>
      </data>
      <graph edgedefault="directed" id="n0:">
        <node id="n0::n0">
          <data key="d5"/>
          <data key="d6">
            <y:ShapeNode>
              <y:Geometry height="30.0" width="109.0" x="65.5" y="195.0"/>
              <y:Fill color="#FFCC00" transparent="false"/>
              <y:BorderStyle color="#000000" raised="false" type="line" width="1.0"/>
              <y:NodeLabel alignment="center" autoSizePolicy="content" fontFamily="Dialog" fontSize="12" fontStyle="plain" hasBackgroundColor="false" hasLineColor="false" height="18.1328125" horizontalTextPosition="center" iconTextGap="4" modelName="custom" textColor="#000000" verticalTextPosition="bottom" visible="true" width="84.748046875" x="12.1259765625" y="5.93359375">protected doc<y:LabelModel>
                  <y:SmartNodeLabelModel distance="4.0"/>
                </y:LabelModel>
                <y:ModelParameter>
                  <y:SmartNodeLabelModelParameter labelRatioX="0.0" labelRatioY="0.0" nodeRatioX="0.0" nodeRatioY="0.0" offsetX="0.0" offsetY="0.0" upX="0.0" upY="-1.0"/>
                </y:ModelParameter>
              </y:NodeLabel>
              <y:Shape type="roundrectangle"/>
            </y:ShapeNode>
          </data>
        </node>
        <node id="n0::n1">
          <data key="d5"/>
          <data key="d6">
            <y:ShapeNode>
              <y:Geometry height="30.0" width="109.0" x="65.5" y="415.0"/>
              <y:Fill color="#FFCC00" transparent="false"/>
              <y:BorderStyle color="#000000" raised="false" type="line" width="1.0"/>
              <y:NodeLabel alignment="center" autoSizePolicy="content" fontFamily="Dialog" fontSize="12" fontStyle="plain" hasBackgroundColor="false" hasLineColor="false" height="18.1328125" horizontalTextPosition="center" iconTextGap="4" modelName="custom" textColor="#000000" verticalTextPosition="bottom" visible="true" width="78.9765625" x="15.01171875" y="5.93359375">readable doc<y:LabelModel>
                  <y:SmartNodeLabelModel distance="4.0"/>
                </y:LabelModel>
                <y:ModelParameter>
                  <y:SmartNodeLabelModelParameter labelRatioX="0.0" labelRatioY="0.0" nodeRatioX="0.0" nodeRatioY="0.0" offsetX="0.0" offsetY="0.0" upX="0.0" upY="-1.0"/>
                </y:ModelParameter>
              </y:NodeLabel>
              <y:Shape type="roundrectangle"/>
            </y:ShapeNode>
          </data>
        </node>
        <node id="n0::n2">
          <data key="d5"/>
          <data key="d6">
            <y:ShapeNode>
              <y:Geometry height="30.0" width="109.0" x="65.5" y="125.0"/>
              <y:Fill color="#FFCC00" transparent="false"/>
              <y:BorderStyle color="#000000" raised="false" type="line" width="1.0"/>
              <y:NodeLabel alignment="center" autoSizePolicy="content" fontFamily="Dialog" fontSize="12" fontStyle="plain" hasBackgroundColor="false" hasLineColor="false" height="18.1328125" horizontalTextPosition="center" iconTextGap="4" modelName="custom" textColor="#000000" verticalTextPosition="bottom" visible="true" width="63.900390625" x="22.5498046875" y="5.93359375">secret doc<y:LabelModel>
                  <y:SmartNodeLabelModel distance="4.0"/>
                </y:LabelModel>
                <y:ModelParameter>
                  <y:SmartNodeLabelModelParameter labelRatioX="0.0" labelRatioY="0.0" nodeRatioX="0.0" nodeRatioY="0.0" offsetX="0.0" offsetY="0.0" upX="0.0" upY="-1.0"/>
                </y:ModelParameter>
              </y:NodeLabel>
              <y:Shape type="roundrectangle"/>
            </y:ShapeNode>
          </data>
        </node>
        <node id="n0::n3">
          <data key="d5"/>
          <data key="d6">
            <y:ShapeNode>
              <y:Geometry height="30.0" width="109.0" x="65.5" y="335.0"/>
              <y:Fill color="#FFCC00" transparent="false"/>
              <y:BorderStyle color="#000000" raised="false" type="line" width="1.0"/>
              <y:NodeLabel alignment="center" autoSizePolicy="content" fontFamily="Dialog" fontSize="12" fontStyle="plain" hasBackgroundColor="false" hasLineColor="false" height="18.1328125" horizontalTextPosition="center" iconTextGap="4" modelName="custom" textColor="#000000" verticalTextPosition="bottom" visible="true" width="68.20703125" x="20.396484375" y="5.93359375">shared doc<y:LabelModel>
                  <y:SmartNodeLabelModel distance="4.0"/>
                </y:LabelModel>
                <y:ModelParameter>
                  <y:SmartNodeLabelModelParameter labelRatioX="0.0" labelRatioY="0.0" nodeRatioX="0.0" nodeRatioY="0.0" offsetX="0.0" offsetY="0.0" upX="0.0" upY="-1.0"/>
                </y:ModelParameter>
              </y:NodeLabel>
              <y:Shape type="roundrectangle"/>
            </y:ShapeNode>
          </data>
        </node>
        <node id="n0::n4">
          <data key="d5"/>
          <data key="d6">
            <y:ShapeNode>
              <y:Geometry height="30.0" width="109.0" x="65.5" y="265.0"/>
              <y:Fill color="#FFCC00" transparent="false"/>
              <y:BorderStyle color="#000000" raised="false" type="line" width="1.0"/>
              <y:NodeLabel alignment="center" autoSizePolicy="content" fontFamily="Dialog" fontSize="12" fontStyle="plain" hasBackgroundColor="false" hasLineColor="false" height="18.1328125" horizontalTextPosition="center" iconTextGap="4" modelName="custom" textColor="#000000" verticalTextPosition="bottom" visible="true" width="77.845703125" x="15.5771484375" y="5.93359375">shielded doc<y:LabelModel>
                  <y:SmartNodeLabelModel distance="4.0"/>
                </y:LabelModel>
                <y:ModelParameter>
                  <y:SmartNodeLabelModelParameter labelRatioX="0.0" labelRatioY="0.0" nodeRatioX="0.0" nodeRatioY="0.0" offsetX="0.0" offsetY="0.0" upX="0.0" upY="-1.0"/>
                </y:ModelParameter>
              </y:NodeLabel>
              <y:Shape type="roundrectangle"/>
            </y:ShapeNode>
          </data>
        </node>
      </graph>
    </node>
    <node id="n1" yfiles.foldertype="group">
      <data key="d4"/>
      <data key="d5"/>
      <data key="d6">
        <y:ProxyAutoBoundsNode>
          <y:Realizers active="0">
            <y:GroupNode>
              <y:Geometry height="372.666015625" width="139.0" x="230.0" y="88.333984375"/>
              <y:Fill color="#F5F5F5" transparent="false"/>
              <y:BorderStyle color="#000000" type="dashed" width="1.0"/>
              <y:NodeLabel alignment="right" autoSizePolicy="node_width" backgroundColor="#EBEBEB" borderDistance="0.0" fontFamily="Dialog" fontSize="15" fontStyle="plain" hasLineColor="false" height="21.666015625" horizontalTextPosition="center" iconTextGap="4" modelName="internal" modelPosition="t" textColor="#000000" verticalTextPosition="bottom" visible="true" width="139.0" x="0.0" y="0.0">Access</y:NodeLabel>
              <y:Shape type="roundrectangle"/>
              <y:State closed="false" closedHeight="50.0" closedWidth="50.0" innerGraphDisplayEnabled="false"/>
              <y:Insets bottom="15" bottomF="15.0" left="15" leftF="15.0" right="15" rightF="15.0" top="15" topF="15.0"/>
              <y:BorderInsets bottom="1" bottomF="1.0" left="0" leftF="0.0" right="0" rightF="0.0" top="70" topF="70.0"/>
            </y:GroupNode>
            <y:GroupNode>
              <y:Geometry height="50.0" width="50.0" x="120.0" y="60.0"/>
              <y:Fill color="#F2F0D8" transparent="false"/>
              <y:BorderStyle color="#000000" type="line" width="1.0"/>
              <y:NodeLabel alignment="right" autoSizePolicy="node_width" backgroundColor="#B7B69E" borderDistance="0.0" fontFamily="Dialog" fontSize="15" fontStyle="plain" hasLineColor="false" height="21.666015625" horizontalTextPosition="center" iconTextGap="4" modelName="internal" modelPosition="t" textColor="#000000" verticalTextPosition="bottom" visible="true" width="63.75830078125" x="-6.879150390625" y="0.0">Folder 2</y:NodeLabel>
              <y:Shape type="rectangle"/>
              <y:DropShadow color="#D2D2D2" offsetX="4" offsetY="4"/>
              <y:State closed="true" closedHeight="50.0" closedWidth="50.0" innerGraphDisplayEnabled="false"/>
              <y:Insets bottom="5" bottomF="5.0" left="5" leftF="5.0" right="5" rightF="5.0" top="5" topF="5.0"/>
              <y:BorderInsets bottom="0" bottomF="0.0" left="0" leftF="0.0" right="0" rightF="0.0" top="0" topF="0.0"/>
            </y:GroupNode>
          </y:Realizers>
        </y:ProxyAutoBoundsNode>
      </data>
      <graph edgedefault="directed" id="n1:">
        <node id="n1::n0">
          <data key="d5"/>
          <data key="d6">
            <y:ShapeNode>
              <y:Geometry height="30.0" width="109.0" x="245.0" y="195.0"/>
              <y:Fill color="#FFCC00" transparent="false"/>
              <y:BorderStyle color="#000000" raised="false" type="line" width="1.0"/>
              <y:NodeLabel alignment="center" autoSizePolicy="content" fontFamily="Dialog" fontSize="12" fontStyle="plain" hasBackgroundColor="false" hasLineColor="false" height="18.1328125" horizontalTextPosition="center" iconTextGap="4" modelName="custom" textColor="#000000" verticalTextPosition="bottom" visible="true" width="96.279296875" x="6.3603515625" y="5.93359375">groups: acl, key<y:LabelModel>
                  <y:SmartNodeLabelModel distance="4.0"/>
                </y:LabelModel>
                <y:ModelParameter>
                  <y:SmartNodeLabelModelParameter labelRatioX="0.0" labelRatioY="0.0" nodeRatioX="0.0" nodeRatioY="0.0" offsetX="0.0" offsetY="0.0" upX="0.0" upY="-1.0"/>
                </y:ModelParameter>
              </y:NodeLabel>
              <y:Shape type="roundrectangle"/>
            </y:ShapeNode>
          </data>
        </node>
        <node id="n1::n1">
          <data key="d5"/>
          <data key="d6">
            <y:ShapeNode>
              <y:Geometry height="30.0" width="109.0" x="245.0" y="265.0"/>
              <y:Fill color="#FFCC00" transparent="false"/>
              <y:BorderStyle color="#000000" raised="false" type="line" width="1.0"/>
              <y:NodeLabel alignment="center" autoSizePolicy="content" fontFamily="Dialog" fontSize="12" fontStyle="plain" hasBackgroundColor="false" hasLineColor="false" height="18.1328125" horizontalTextPosition="center" iconTextGap="4" modelName="custom" textColor="#000000" verticalTextPosition="bottom" visible="true" width="65.916015625" x="21.5419921875" y="5.93359375">new shield<y:LabelModel>
                  <y:SmartNodeLabelModel distance="4.0"/>
                </y:LabelModel>
                <y:ModelParameter>
                  <y:SmartNodeLabelModelParameter labelRatioX="0.0" labelRatioY="0.0" nodeRatioX="0.0" nodeRatioY="0.0" offsetX="0.0" offsetY="0.0" upX="0.0" upY="-1.0"/>
                </y:ModelParameter>
              </y:NodeLabel>
              <y:Shape type="roundrectangle"/>
            </y:ShapeNode>
          </data>
        </node>
        <node id="n1::n2">
          <data key="d5"/>
          <data key="d6">
            <y:ShapeNode>
              <y:Geometry height="30.0" width="109.0" x="245.0" y="335.0"/>
              <y:Fill color="#FFCC00" transparent="false"/>
              <y:BorderStyle color="#000000" raised="false" type="line" width="1.0"/>
              <y:NodeLabel alignment="center" autoSizePolicy="content" fontFamily="Dialog" fontSize="12" fontStyle="plain" hasBackgroundColor="false" hasLineColor="false" height="18.1328125" horizontalTextPosition="center" iconTextGap="4" modelName="custom" textColor="#000000" verticalTextPosition="bottom" visible="true" width="78.443359375" x="15.2783203125" y="5.93359375">shield to use<y:LabelModel>
                  <y:SmartNodeLabelModel distance="4.0"/>
                </y:LabelModel>
                <y:ModelParameter>
                  <y:SmartNodeLabelModelParameter labelRatioX="0.0" labelRatioY="0.0" nodeRatioX="0.0" nodeRatioY="0.0" offsetX="0.0" offsetY="0.0" upX="0.0" upY="-1.0"/>
                </y:ModelParameter>
              </y:NodeLabel>
              <y:Shape type="roundrectangle"/>
            </y:ShapeNode>
          </data>
        </node>
        <node id="n1::n3">
          <data key="d5"/>
          <data key="d6">
            <y:ShapeNode>
              <y:Geometry height="30.0" width="109.0" x="245.0" y="415.0"/>
              <y:Fill color="#FFCC00" transparent="false"/>
              <y:BorderStyle color="#000000" raised="false" type="line" width="1.0"/>
              <y:NodeLabel alignment="center" autoSizePolicy="content" fontFamily="Dialog" fontSize="12" fontStyle="plain" hasBackgroundColor="false" hasLineColor="false" height="18.1328125" horizontalTextPosition="center" iconTextGap="4" modelName="custom" textColor="#000000" verticalTextPosition="bottom" visible="true" width="72.443359375" x="18.2783203125" y="5.93359375">groups: key<y:LabelModel>
                  <y:SmartNodeLabelModel distance="4.0"/>
                </y:LabelModel>
                <y:ModelParameter>
                  <y:SmartNodeLabelModelParameter labelRatioX="0.0" labelRatioY="0.0" nodeRatioX="0.0" nodeRatioY="0.0" offsetX="0.0" offsetY="0.0" upX="0.0" upY="-1.0"/>
                </y:ModelParameter>
              </y:NodeLabel>
              <y:Shape type="roundrectangle"/>
            </y:ShapeNode>
          </data>
        </node>
      </graph>
    </node>
    <node id="n2" yfiles.foldertype="group">
      <data key="d4"/>
      <data key="d5"/>
      <data key="d6">
        <y:ProxyAutoBoundsNode>
          <y:Realizers active="0">
            <y:GroupNode>
              <y:Geometry height="372.666015625" width="139.0" x="600.5" y="88.333984375"/>
              <y:Fill color="#F5F5F5" transparent="false"/>
              <y:BorderStyle color="#000000" type="dashed" width="1.0"/>
              <y:NodeLabel alignment="right" autoSizePolicy="node_width" backgroundColor="#EBEBEB" borderDistance="0.0" fontFamily="Dialog" fontSize="15" fontStyle="plain" hasLineColor="false" height="21.666015625" horizontalTextPosition="center" iconTextGap="4" modelName="internal" modelPosition="t" textColor="#000000" verticalTextPosition="bottom" visible="true" width="139.0" x="0.0" y="0.0">KZIP Service</y:NodeLabel>
              <y:Shape type="roundrectangle"/>
              <y:State closed="false" closedHeight="50.0" closedWidth="50.0" innerGraphDisplayEnabled="false"/>
              <y:Insets bottom="15" bottomF="15.0" left="15" leftF="15.0" right="15" rightF="15.0" top="15" topF="15.0"/>
              <y:BorderInsets bottom="1" bottomF="1.0" left="0" leftF="0.0" right="0" rightF="0.0" top="70" topF="70.0"/>
            </y:GroupNode>
            <y:GroupNode>
              <y:Geometry height="50.0" width="50.0" x="120.0" y="60.0"/>
              <y:Fill color="#F2F0D8" transparent="false"/>
              <y:BorderStyle color="#000000" type="line" width="1.0"/>
              <y:NodeLabel alignment="right" autoSizePolicy="node_width" backgroundColor="#B7B69E" borderDistance="0.0" fontFamily="Dialog" fontSize="15" fontStyle="plain" hasLineColor="false" height="21.666015625" horizontalTextPosition="center" iconTextGap="4" modelName="internal" modelPosition="t" textColor="#000000" verticalTextPosition="bottom" visible="true" width="63.75830078125" x="-6.879150390625" y="0.0">Folder 3</y:NodeLabel>
              <y:Shape type="rectangle"/>
              <y:DropShadow color="#D2D2D2" offsetX="4" offsetY="4"/>
              <y:State closed="true" closedHeight="50.0" closedWidth="50.0" innerGraphDisplayEnabled="false"/>
              <y:Insets bottom="5" bottomF="5.0" left="5" leftF="5.0" right="5" rightF="5.0" top="5" topF="5.0"/>
              <y:BorderInsets bottom="0" bottomF="0.0" left="0" leftF="0.0" right="0" rightF="0.0" top="0" topF="0.0"/>
            </y:GroupNode>
          </y:Realizers>
        </y:ProxyAutoBoundsNode>
      </data>
      <graph edgedefault="directed" id="n2:">
        <node id="n2::n0">
          <data key="d5"/>
          <data key="d6">
            <y:ShapeNode>
              <y:Geometry height="30.0" width="109.0" x="615.5" y="195.0"/>
              <y:Fill color="#FFCC00" transparent="false"/>
              <y:BorderStyle color="#000000" raised="false" type="line" width="1.0"/>
              <y:NodeLabel alignment="center" autoSizePolicy="content" fontFamily="Dialog" fontSize="12" fontStyle="plain" hasBackgroundColor="false" hasLineColor="false" height="18.1328125" horizontalTextPosition="center" iconTextGap="4" modelName="custom" textColor="#000000" verticalTextPosition="bottom" visible="true" width="69.185546875" x="19.9072265625" y="5.93359375">encrypt.me<y:LabelModel>
                  <y:SmartNodeLabelModel distance="4.0"/>
                </y:LabelModel>
                <y:ModelParameter>
                  <y:SmartNodeLabelModelParameter labelRatioX="0.0" labelRatioY="0.0" nodeRatioX="0.0" nodeRatioY="0.0" offsetX="0.0" offsetY="0.0" upX="0.0" upY="-1.0"/>
                </y:ModelParameter>
              </y:NodeLabel>
              <y:Shape type="roundrectangle"/>
            </y:ShapeNode>
          </data>
        </node>
        <node id="n2::n1">
          <data key="d5"/>
          <data key="d6">
            <y:ShapeNode>
              <y:Geometry height="30.0" width="109.0" x="615.5" y="265.0"/>
              <y:Fill color="#FFCC00" transparent="false"/>
              <y:BorderStyle color="#000000" raised="false" type="line" width="1.0"/>
              <y:NodeLabel alignment="center" autoSizePolicy="content" fontFamily="Dialog" fontSize="12" fontStyle="plain" hasBackgroundColor="false" hasLineColor="false" height="18.1328125" horizontalTextPosition="center" iconTextGap="4" modelName="custom" textColor="#000000" verticalTextPosition="bottom" visible="true" width="38.740234375" x="35.1298828125" y="5.93359375">shield<y:LabelModel>
                  <y:SmartNodeLabelModel distance="4.0"/>
                </y:LabelModel>
                <y:ModelParameter>
                  <y:SmartNodeLabelModelParameter labelRatioX="0.0" labelRatioY="0.0" nodeRatioX="0.0" nodeRatioY="0.0" offsetX="0.0" offsetY="0.0" upX="0.0" upY="-1.0"/>
                </y:ModelParameter>
              </y:NodeLabel>
              <y:Shape type="roundrectangle"/>
            </y:ShapeNode>
          </data>
        </node>
        <node id="n2::n2">
          <data key="d5"/>
          <data key="d6">
            <y:ShapeNode>
              <y:Geometry height="30.0" width="109.0" x="615.5" y="335.0"/>
              <y:Fill color="#FFCC00" transparent="false"/>
              <y:BorderStyle color="#000000" raised="false" type="line" width="1.0"/>
              <y:NodeLabel alignment="center" autoSizePolicy="content" fontFamily="Dialog" fontSize="12" fontStyle="plain" hasBackgroundColor="false" hasLineColor="false" height="18.1328125" horizontalTextPosition="center" iconTextGap="4" modelName="custom" textColor="#000000" verticalTextPosition="bottom" visible="true" width="69.291015625" x="19.8544921875" y="5.93359375">decrypt.me<y:LabelModel>
                  <y:SmartNodeLabelModel distance="4.0"/>
                </y:LabelModel>
                <y:ModelParameter>
                  <y:SmartNodeLabelModelParameter labelRatioX="0.0" labelRatioY="0.0" nodeRatioX="0.0" nodeRatioY="0.0" offsetX="0.0" offsetY="0.0" upX="0.0" upY="-1.0"/>
                </y:ModelParameter>
              </y:NodeLabel>
              <y:Shape type="roundrectangle"/>
            </y:ShapeNode>
          </data>
        </node>
        <node id="n2::n3">
          <data key="d5"/>
          <data key="d6">
            <y:ShapeNode>
              <y:Geometry height="30.0" width="109.0" x="615.5" y="415.0"/>
              <y:Fill color="#FFCC00" transparent="false"/>
              <y:BorderStyle color="#000000" raised="false" type="line" width="1.0"/>
              <y:NodeLabel alignment="center" autoSizePolicy="content" fontFamily="Dialog" fontSize="12" fontStyle="plain" hasBackgroundColor="false" hasLineColor="false" height="18.1328125" horizontalTextPosition="center" iconTextGap="4" modelName="custom" textColor="#000000" verticalTextPosition="bottom" visible="true" width="51.47265625" x="28.763671875" y="5.93359375">acl filter<y:LabelModel>
                  <y:SmartNodeLabelModel distance="4.0"/>
                </y:LabelModel>
                <y:ModelParameter>
                  <y:SmartNodeLabelModelParameter labelRatioX="0.0" labelRatioY="0.0" nodeRatioX="0.0" nodeRatioY="0.0" offsetX="0.0" offsetY="0.0" upX="0.0" upY="-1.0"/>
                </y:ModelParameter>
              </y:NodeLabel>
              <y:Shape type="roundrectangle"/>
            </y:ShapeNode>
          </data>
        </node>
      </graph>
    </node>
    <edge id="n0::e0" source="n0::n2" target="n0::n0">
      <data key="d9"/>
      <data key="d10">
        <y:PolyLineEdge>
          <y:Path sx="0.0" sy="0.0" tx="0.0" ty="0.0"/>
          <y:LineStyle color="#000000" type="line" width="1.0"/>
          <y:Arrows source="none" target="standard"/>
          <y:EdgeLabel alignment="center" configuration="AutoFlippingLabel" distance="2.0" fontFamily="Dialog" fontSize="12" fontStyle="plain" hasBackgroundColor="false" hasLineColor="false" hasText="false" height="4.0" horizontalTextPosition="center" iconTextGap="4" modelName="custom" preferredPlacement="anywhere" ratio="0.5" textColor="#000000" verticalTextPosition="bottom" visible="true" width="4.0" x="-32.0" y="17.9951171875">
            <y:LabelModel>
              <y:SmartEdgeLabelModel autoRotationEnabled="false" defaultAngle="0.0" defaultDistance="10.0"/>
            </y:LabelModel>
            <y:ModelParameter>
              <y:SmartEdgeLabelModelParameter angle="0.0" distance="30.0" distanceToCenter="true" position="right" ratio="0.5" segment="0"/>
            </y:ModelParameter>
            <y:PreferredPlacementDescriptor angle="0.0" angleOffsetOnRightSide="0" angleReference="absolute" angleRotationOnRightSide="co" distance="-1.0" frozen="true" placement="anywhere" side="anywhere" sideReference="relative_to_edge_flow"/>
          </y:EdgeLabel>
          <y:BendStyle smoothed="false"/>
        </y:PolyLineEdge>
      </data>
    </edge>
    <edge id="e0" source="n0::n2" target="n1::n0">
      <data key="d9"/>
      <data key="d10">
        <y:PolyLineEdge>
          <y:Path sx="0.0" sy="0.0" tx="0.0" ty="0.0">
            <y:Point x="300.0" y="138.0"/>
          </y:Path>
          <y:LineStyle color="#000000" type="line" width="1.0"/>
          <y:Arrows source="none" target="standard"/>
          <y:EdgeLabel alignment="center" configuration="AutoFlippingLabel" distance="2.0" fontFamily="Dialog" fontSize="12" fontStyle="plain" hasBackgroundColor="false" hasLineColor="false" hasText="false" height="4.0" horizontalTextPosition="center" iconTextGap="4" modelName="custom" preferredPlacement="anywhere" ratio="0.5" textColor="#000000" verticalTextPosition="bottom" visible="true" width="4.0" x="61.04717994660666" y="27.301327573070495">
            <y:LabelModel>
              <y:SmartEdgeLabelModel autoRotationEnabled="false" defaultAngle="0.0" defaultDistance="10.0"/>
            </y:LabelModel>
            <y:ModelParameter>
              <y:SmartEdgeLabelModelParameter angle="0.0" distance="30.0" distanceToCenter="true" position="right" ratio="0.5" segment="0"/>
            </y:ModelParameter>
            <y:PreferredPlacementDescriptor angle="0.0" angleOffsetOnRightSide="0" angleReference="absolute" angleRotationOnRightSide="co" distance="-1.0" frozen="true" placement="anywhere" side="anywhere" sideReference="relative_to_edge_flow"/>
          </y:EdgeLabel>
          <y:BendStyle smoothed="false"/>
        </y:PolyLineEdge>
      </data>
    </edge>
    <edge id="e1" source="n1::n0" target="n2::n0">
      <data key="d9"/>
      <data key="d10">
        <y:PolyLineEdge>
          <y:Path sx="0.0" sy="0.0" tx="0.0" ty="0.0"/>
          <y:LineStyle color="#000000" type="line" width="1.0"/>
          <y:Arrows source="none" target="standard"/>
          <y:EdgeLabel alignment="center" configuration="AutoFlippingLabel" distance="2.0" fontFamily="Dialog" fontSize="12" fontStyle="plain" hasBackgroundColor="false" hasLineColor="false" height="32.265625" horizontalTextPosition="center" iconTextGap="4" modelName="custom" preferredPlacement="anywhere" ratio="0.5" textColor="#000000" verticalTextPosition="bottom" visible="true" width="97.568359375" x="81.96722412109375" y="-16.1328125">KIP-ENCR-REQ
[P10] KZ-Recipe<y:LabelModel>
              <y:SmartEdgeLabelModel autoRotationEnabled="false" defaultAngle="0.0" defaultDistance="10.0"/>
            </y:LabelModel>
            <y:ModelParameter>
              <y:SmartEdgeLabelModelParameter angle="0.0" distance="30.0" distanceToCenter="true" position="center" ratio="0.5" segment="0"/>
            </y:ModelParameter>
            <y:PreferredPlacementDescriptor angle="0.0" angleOffsetOnRightSide="0" angleReference="absolute" angleRotationOnRightSide="co" distance="-1.0" frozen="true" placement="anywhere" side="anywhere" sideReference="relative_to_edge_flow"/>
          </y:EdgeLabel>
          <y:BendStyle smoothed="false"/>
        </y:PolyLineEdge>
      </data>
    </edge>
    <edge id="n2::e0" source="n2::n0" target="n2::n1">
      <data key="d9"/>
      <data key="d10">
        <y:PolyLineEdge>
          <y:Path sx="0.0" sy="0.0" tx="0.0" ty="0.0"/>
          <y:LineStyle color="#000000" type="line" width="1.0"/>
          <y:Arrows source="none" target="standard"/>
          <y:EdgeLabel alignment="center" configuration="AutoFlippingLabel" distance="2.0" fontFamily="Dialog" fontSize="12" fontStyle="plain" hasBackgroundColor="false" hasLineColor="false" hasText="false" height="4.0" horizontalTextPosition="center" iconTextGap="4" modelName="custom" preferredPlacement="anywhere" ratio="0.5" textColor="#000000" verticalTextPosition="bottom" visible="true" width="4.0" x="-32.0" y="17.9951171875">
            <y:LabelModel>
              <y:SmartEdgeLabelModel autoRotationEnabled="false" defaultAngle="0.0" defaultDistance="10.0"/>
            </y:LabelModel>
            <y:ModelParameter>
              <y:SmartEdgeLabelModelParameter angle="0.0" distance="30.0" distanceToCenter="true" position="right" ratio="0.5" segment="0"/>
            </y:ModelParameter>
            <y:PreferredPlacementDescriptor angle="0.0" angleOffsetOnRightSide="0" angleReference="absolute" angleRotationOnRightSide="co" distance="-1.0" frozen="true" placement="anywhere" side="anywhere" sideReference="relative_to_edge_flow"/>
          </y:EdgeLabel>
          <y:BendStyle smoothed="false"/>
        </y:PolyLineEdge>
      </data>
    </edge>
    <edge id="e2" source="n2::n1" target="n1::n1">
      <data key="d9"/>
      <data key="d10">
        <y:PolyLineEdge>
          <y:Path sx="0.0" sy="0.0" tx="0.0" ty="0.0"/>
          <y:LineStyle color="#000000" type="line" width="1.0"/>
          <y:Arrows source="none" target="standard"/>
          <y:EdgeLabel alignment="center" configuration="AutoFlippingLabel" distance="2.0" fontFamily="Dialog" fontSize="12" fontStyle="plain" hasBackgroundColor="false" hasLineColor="false" height="32.265625" horizontalTextPosition="center" iconTextGap="4" modelName="custom" preferredPlacement="anywhere" ratio="0.5" textColor="#000000" verticalTextPosition="bottom" visible="true" width="94.52734375" x="-178.01507568359375" y="-16.1328125">KIP-ENCR-REP
[P11] KZ-Shield<y:LabelModel>
              <y:SmartEdgeLabelModel autoRotationEnabled="false" defaultAngle="0.0" defaultDistance="10.0"/>
            </y:LabelModel>
            <y:ModelParameter>
              <y:SmartEdgeLabelModelParameter angle="0.0" distance="30.0" distanceToCenter="true" position="center" ratio="0.5" segment="0"/>
            </y:ModelParameter>
            <y:PreferredPlacementDescriptor angle="0.0" angleOffsetOnRightSide="0" angleReference="absolute" angleRotationOnRightSide="co" distance="-1.0" frozen="true" placement="anywhere" side="anywhere" sideReference="relative_to_edge_flow"/>
          </y:EdgeLabel>
          <y:BendStyle smoothed="false"/>
        </y:PolyLineEdge>
      </data>
    </edge>
    <edge id="e3" source="n1::n3" target="n0::n1">
      <data key="d9"/>
      <data key="d10">
        <y:PolyLineEdge>
          <y:Path sx="0.0" sy="0.0" tx="0.0" ty="0.0"/>
          <y:LineStyle color="#000000" type="line" width="1.0"/>
          <y:Arrows source="none" target="standard"/>
          <y:EdgeLabel alignment="center" configuration="AutoFlippingLabel" distance="2.0" fontFamily="Dialog" fontSize="12" fontStyle="plain" hasBackgroundColor="false" hasLineColor="false" hasText="false" height="4.0" horizontalTextPosition="center" iconTextGap="4" modelName="custom" preferredPlacement="anywhere" ratio="0.5" textColor="#000000" verticalTextPosition="bottom" visible="true" width="4.0" x="-37.2777099609375" y="-32.0">
            <y:LabelModel>
              <y:SmartEdgeLabelModel autoRotationEnabled="false" defaultAngle="0.0" defaultDistance="10.0"/>
            </y:LabelModel>
            <y:ModelParameter>
              <y:SmartEdgeLabelModelParameter angle="0.0" distance="30.0" distanceToCenter="true" position="right" ratio="0.5" segment="0"/>
            </y:ModelParameter>
            <y:PreferredPlacementDescriptor angle="0.0" angleOffsetOnRightSide="0" angleReference="absolute" angleRotationOnRightSide="co" distance="-1.0" frozen="true" placement="anywhere" side="anywhere" sideReference="relative_to_edge_flow"/>
          </y:EdgeLabel>
          <y:BendStyle smoothed="false"/>
        </y:PolyLineEdge>
      </data>
    </edge>
    <edge id="e4" source="n1::n2" target="n2::n2">
      <data key="d9"/>
      <data key="d10">
        <y:PolyLineEdge>
          <y:Path sx="0.0" sy="0.0" tx="0.0" ty="0.0"/>
          <y:LineStyle color="#000000" type="line" width="1.0"/>
          <y:Arrows source="none" target="standard"/>
          <y:EdgeLabel alignment="center" configuration="AutoFlippingLabel" distance="2.0" fontFamily="Dialog" fontSize="12" fontStyle="plain" hasBackgroundColor="false" hasLineColor="false" height="32.265625" horizontalTextPosition="center" iconTextGap="4" modelName="custom" preferredPlacement="anywhere" ratio="0.5" textColor="#000000" verticalTextPosition="bottom" visible="true" width="94.52734375" x="83.48773193359375" y="-16.1328125">KIP-DECR-REQ
[P12] KZ-Shield<y:LabelModel>
              <y:SmartEdgeLabelModel autoRotationEnabled="false" defaultAngle="0.0" defaultDistance="10.0"/>
            </y:LabelModel>
            <y:ModelParameter>
              <y:SmartEdgeLabelModelParameter angle="0.0" distance="30.0" distanceToCenter="true" position="center" ratio="0.5" segment="0"/>
            </y:ModelParameter>
            <y:PreferredPlacementDescriptor angle="0.0" angleOffsetOnRightSide="0" angleReference="absolute" angleRotationOnRightSide="co" distance="-1.0" frozen="true" placement="anywhere" side="anywhere" sideReference="relative_to_edge_flow"/>
          </y:EdgeLabel>
          <y:BendStyle smoothed="false"/>
        </y:PolyLineEdge>
      </data>
    </edge>
    <edge id="e5" source="n2::n3" target="n1::n3">
      <data key="d9"/>
      <data key="d10">
        <y:PolyLineEdge>
          <y:Path sx="0.0" sy="0.0" tx="0.0" ty="0.0"/>
          <y:LineStyle color="#000000" type="line" width="1.0"/>
          <y:Arrows source="none" target="standard"/>
          <y:EdgeLabel alignment="center" configuration="AutoFlippingLabel" distance="2.0" fontFamily="Dialog" fontSize="12" fontStyle="plain" hasBackgroundColor="false" hasLineColor="false" height="32.265625" horizontalTextPosition="center" iconTextGap="4" modelName="custom" preferredPlacement="anywhere" ratio="0.5" textColor="#000000" verticalTextPosition="bottom" visible="true" width="101.51171875" x="-181.50726318359375" y="-16.1328125">KIP-DECR-REP
[P13] KZ-Groups<y:LabelModel>
              <y:SmartEdgeLabelModel autoRotationEnabled="false" defaultAngle="0.0" defaultDistance="10.0"/>
            </y:LabelModel>
            <y:ModelParameter>
              <y:SmartEdgeLabelModelParameter angle="0.0" distance="30.0" distanceToCenter="true" position="center" ratio="0.5" segment="0"/>
            </y:ModelParameter>
            <y:PreferredPlacementDescriptor angle="0.0" angleOffsetOnRightSide="0" angleReference="absolute" angleRotationOnRightSide="co" distance="-1.0" frozen="true" placement="anywhere" side="anywhere" sideReference="relative_to_edge_flow"/>
          </y:EdgeLabel>
          <y:BendStyle smoothed="false"/>
        </y:PolyLineEdge>
      </data>
    </edge>
    <edge id="e6" source="n0::n3" target="n1::n2">
      <data key="d9"/>
      <data key="d10">
        <y:PolyLineEdge>
          <y:Path sx="0.0" sy="0.0" tx="0.0" ty="0.0"/>
          <y:LineStyle color="#000000" type="line" width="1.0"/>
          <y:Arrows source="none" target="standard"/>
          <y:EdgeLabel alignment="center" configuration="AutoFlippingLabel" distance="2.0" fontFamily="Dialog" fontSize="12" fontStyle="plain" hasBackgroundColor="false" hasLineColor="false" hasText="false" height="4.0" horizontalTextPosition="center" iconTextGap="4" modelName="custom" preferredPlacement="anywhere" ratio="0.5" textColor="#000000" verticalTextPosition="bottom" visible="true" width="4.0" x="33.2777099609375" y="28.0">
            <y:LabelModel>
              <y:SmartEdgeLabelModel autoRotationEnabled="false" defaultAngle="0.0" defaultDistance="10.0"/>
            </y:LabelModel>
            <y:ModelParameter>
              <y:SmartEdgeLabelModelParameter angle="0.0" distance="30.0" distanceToCenter="true" position="right" ratio="0.5" segment="0"/>
            </y:ModelParameter>
            <y:PreferredPlacementDescriptor angle="0.0" angleOffsetOnRightSide="0" angleReference="absolute" angleRotationOnRightSide="co" distance="-1.0" frozen="true" placement="anywhere" side="anywhere" sideReference="relative_to_edge_flow"/>
          </y:EdgeLabel>
          <y:BendStyle smoothed="false"/>
        </y:PolyLineEdge>
      </data>
    </edge>
    <edge id="n0::e1" source="n0::n3" target="n0::n1">
      <data key="d9"/>
      <data key="d10">
        <y:PolyLineEdge>
          <y:Path sx="0.0" sy="0.0" tx="0.0" ty="0.0"/>
          <y:LineStyle color="#000000" type="line" width="1.0"/>
          <y:Arrows source="none" target="standard"/>
          <y:EdgeLabel alignment="center" configuration="AutoFlippingLabel" distance="2.0" fontFamily="Dialog" fontSize="12" fontStyle="plain" hasBackgroundColor="false" hasLineColor="false" hasText="false" height="4.0" horizontalTextPosition="center" iconTextGap="4" modelName="custom" preferredPlacement="anywhere" ratio="0.5" textColor="#000000" verticalTextPosition="bottom" visible="true" width="4.0" x="-32.0" y="23.0390625">
            <y:LabelModel>
              <y:SmartEdgeLabelModel autoRotationEnabled="false" defaultAngle="0.0" defaultDistance="10.0"/>
            </y:LabelModel>
            <y:ModelParameter>
              <y:SmartEdgeLabelModelParameter angle="0.0" distance="30.0" distanceToCenter="true" position="right" ratio="0.5" segment="0"/>
            </y:ModelParameter>
            <y:PreferredPlacementDescriptor angle="0.0" angleOffsetOnRightSide="0" angleReference="absolute" angleRotationOnRightSide="co" distance="-1.0" frozen="true" placement="anywhere" side="anywhere" sideReference="relative_to_edge_flow"/>
          </y:EdgeLabel>
          <y:BendStyle smoothed="false"/>
        </y:PolyLineEdge>
      </data>
    </edge>
    <edge id="e7" source="n1::n0" target="n0::n0">
      <data key="d9"/>
      <data key="d10">
        <y:PolyLineEdge>
          <y:Path sx="0.0" sy="0.0" tx="0.0" ty="0.0"/>
          <y:LineStyle color="#000000" type="line" width="1.0"/>
          <y:Arrows source="none" target="standard"/>
          <y:EdgeLabel alignment="center" configuration="AutoFlippingLabel" distance="2.0" fontFamily="Dialog" fontSize="12" fontStyle="plain" hasBackgroundColor="false" hasLineColor="false" hasText="false" height="4.0" horizontalTextPosition="center" iconTextGap="4" modelName="custom" preferredPlacement="anywhere" ratio="0.5" textColor="#000000" verticalTextPosition="bottom" visible="true" width="4.0" x="-37.2777099609375" y="-32.0">
            <y:LabelModel>
              <y:SmartEdgeLabelModel autoRotationEnabled="false" defaultAngle="0.0" defaultDistance="10.0"/>
            </y:LabelModel>
            <y:ModelParameter>
              <y:SmartEdgeLabelModelParameter angle="0.0" distance="30.0" distanceToCenter="true" position="right" ratio="0.5" segment="0"/>
            </y:ModelParameter>
            <y:PreferredPlacementDescriptor angle="0.0" angleOffsetOnRightSide="0" angleReference="absolute" angleRotationOnRightSide="co" distance="-1.0" frozen="true" placement="anywhere" side="anywhere" sideReference="relative_to_edge_flow"/>
          </y:EdgeLabel>
          <y:BendStyle smoothed="false"/>
        </y:PolyLineEdge>
      </data>
    </edge>
    <edge id="n0::e2" source="n0::n0" target="n0::n4">
      <data key="d9"/>
      <data key="d10">
        <y:PolyLineEdge>
          <y:Path sx="0.0" sy="0.0" tx="0.0" ty="0.0"/>
          <y:LineStyle color="#000000" type="line" width="1.0"/>
          <y:Arrows source="none" target="standard"/>
          <y:EdgeLabel alignment="center" configuration="AutoFlippingLabel" distance="2.0" fontFamily="Dialog" fontSize="12" fontStyle="plain" hasBackgroundColor="false" hasLineColor="false" hasText="false" height="4.0" horizontalTextPosition="center" iconTextGap="4" modelName="custom" preferredPlacement="anywhere" ratio="0.5" textColor="#000000" verticalTextPosition="bottom" visible="true" width="4.0" x="-32.0" y="17.9951171875">
            <y:LabelModel>
              <y:SmartEdgeLabelModel autoRotationEnabled="false" defaultAngle="0.0" defaultDistance="10.0"/>
            </y:LabelModel>
            <y:ModelParameter>
              <y:SmartEdgeLabelModelParameter angle="0.0" distance="30.0" distanceToCenter="true" position="right" ratio="0.5" segment="0"/>
            </y:ModelParameter>
            <y:PreferredPlacementDescriptor angle="0.0" angleOffsetOnRightSide="0" angleReference="absolute" angleRotationOnRightSide="co" distance="-1.0" frozen="true" placement="anywhere" side="anywhere" sideReference="relative_to_edge_flow"/>
          </y:EdgeLabel>
          <y:BendStyle smoothed="false"/>
        </y:PolyLineEdge>
      </data>
    </edge>
    <edge id="e8" source="n1::n1" target="n0::n4">
      <data key="d9"/>
      <data key="d10">
        <y:PolyLineEdge>
          <y:Path sx="0.0" sy="0.0" tx="0.0" ty="0.0"/>
          <y:LineStyle color="#000000" type="line" width="1.0"/>
          <y:Arrows source="none" target="standard"/>
          <y:EdgeLabel alignment="center" configuration="AutoFlippingLabel" distance="2.0" fontFamily="Dialog" fontSize="12" fontStyle="plain" hasBackgroundColor="false" hasLineColor="false" hasText="false" height="4.0" horizontalTextPosition="center" iconTextGap="4" modelName="custom" preferredPlacement="anywhere" ratio="0.5" textColor="#000000" verticalTextPosition="bottom" visible="true" width="4.0" x="-37.2777099609375" y="-32.0">
            <y:LabelModel>
              <y:SmartEdgeLabelModel autoRotationEnabled="false" defaultAngle="0.0" defaultDistance="10.0"/>
            </y:LabelModel>
            <y:ModelParameter>
              <y:SmartEdgeLabelModelParameter angle="0.0" distance="30.0" distanceToCenter="true" position="right" ratio="0.5" segment="0"/>
            </y:ModelParameter>
            <y:PreferredPlacementDescriptor angle="0.0" angleOffsetOnRightSide="0" angleReference="absolute" angleRotationOnRightSide="co" distance="-1.0" frozen="true" placement="anywhere" side="anywhere" sideReference="relative_to_edge_flow"/>
          </y:EdgeLabel>
          <y:BendStyle smoothed="false"/>
        </y:PolyLineEdge>
      </data>
    </edge>
    <edge id="n0::e3" source="n0::n4" target="n0::n3">
      <data key="d9"/>
      <data key="d10">
        <y:PolyLineEdge>
          <y:Path sx="0.0" sy="0.0" tx="0.0" ty="0.0"/>
          <y:LineStyle color="#000000" type="line" width="1.0"/>
          <y:Arrows source="none" target="standard"/>
          <y:EdgeLabel alignment="center" configuration="AutoFlippingLabel" distance="2.0" fontFamily="Dialog" fontSize="12" fontStyle="plain" hasBackgroundColor="false" hasLineColor="false" hasText="false" height="4.0" horizontalTextPosition="center" iconTextGap="4" modelName="custom" preferredPlacement="anywhere" ratio="0.5" textColor="#000000" verticalTextPosition="bottom" visible="true" width="4.0" x="-32.0" y="17.9951171875">
            <y:LabelModel>
              <y:SmartEdgeLabelModel autoRotationEnabled="false" defaultAngle="0.0" defaultDistance="10.0"/>
            </y:LabelModel>
            <y:ModelParameter>
              <y:SmartEdgeLabelModelParameter angle="0.0" distance="30.0" distanceToCenter="true" position="right" ratio="0.5" segment="0"/>
            </y:ModelParameter>
            <y:PreferredPlacementDescriptor angle="0.0" angleOffsetOnRightSide="0" angleReference="absolute" angleRotationOnRightSide="co" distance="-1.0" frozen="true" placement="anywhere" side="anywhere" sideReference="relative_to_edge_flow"/>
          </y:EdgeLabel>
          <y:BendStyle smoothed="false"/>
        </y:PolyLineEdge>
      </data>
    </edge>
    <edge id="n1::e0" source="n1::n1" target="n1::n2">
      <data key="d9"/>
      <data key="d10">
        <y:PolyLineEdge>
          <y:Path sx="0.0" sy="0.0" tx="0.0" ty="0.0"/>
          <y:LineStyle color="#000000" type="dashed" width="1.0"/>
          <y:Arrows source="none" target="standard"/>
          <y:EdgeLabel alignment="center" configuration="AutoFlippingLabel" distance="2.0" fontFamily="Dialog" fontSize="12" fontStyle="plain" hasBackgroundColor="false" hasLineColor="false" hasText="false" height="4.0" horizontalTextPosition="center" iconTextGap="4" modelName="custom" preferredPlacement="anywhere" ratio="0.5" textColor="#000000" verticalTextPosition="bottom" visible="true" width="4.0" x="-32.0" y="17.9951171875">
            <y:LabelModel>
              <y:SmartEdgeLabelModel autoRotationEnabled="false" defaultAngle="0.0" defaultDistance="10.0"/>
            </y:LabelModel>
            <y:ModelParameter>
              <y:SmartEdgeLabelModelParameter angle="0.0" distance="30.0" distanceToCenter="true" position="right" ratio="0.5" segment="0"/>
            </y:ModelParameter>
            <y:PreferredPlacementDescriptor angle="0.0" angleOffsetOnRightSide="0" angleReference="absolute" angleRotationOnRightSide="co" distance="-1.0" frozen="true" placement="anywhere" side="anywhere" sideReference="relative_to_edge_flow"/>
          </y:EdgeLabel>
          <y:BendStyle smoothed="false"/>
        </y:PolyLineEdge>
      </data>
    </edge>
    <edge id="n2::e1" source="n2::n2" target="n2::n3">
      <data key="d9"/>
      <data key="d10">
        <y:PolyLineEdge>
          <y:Path sx="0.0" sy="0.0" tx="0.0" ty="0.0"/>
          <y:LineStyle color="#000000" type="line" width="1.0"/>
          <y:Arrows source="none" target="standard"/>
          <y:EdgeLabel alignment="center" configuration="AutoFlippingLabel" distance="2.0" fontFamily="Dialog" fontSize="12" fontStyle="plain" hasBackgroundColor="false" hasLineColor="false" hasText="false" height="4.0" horizontalTextPosition="center" iconTextGap="4" modelName="custom" preferredPlacement="anywhere" ratio="0.5" textColor="#000000" verticalTextPosition="bottom" visible="true" width="4.0" x="-32.0" y="23.0390625">
            <y:LabelModel>
              <y:SmartEdgeLabelModel autoRotationEnabled="false" defaultAngle="0.0" defaultDistance="10.0"/>
            </y:LabelModel>
            <y:ModelParameter>
              <y:SmartEdgeLabelModelParameter angle="0.0" distance="30.0" distanceToCenter="true" position="right" ratio="0.5" segment="0"/>
            </y:ModelParameter>
            <y:PreferredPlacementDescriptor angle="0.0" angleOffsetOnRightSide="0" angleReference="absolute" angleRotationOnRightSide="co" distance="-1.0" frozen="true" placement="anywhere" side="anywhere" sideReference="relative_to_edge_flow"/>
          </y:EdgeLabel>
          <y:BendStyle smoothed="false"/>
        </y:PolyLineEdge>
      </data>
    </edge>
  </graph>
  <data key="d7">
    <y:Resources/>
  </data>
</graphml>
